%YAML 1.1
%TAG !u! tag:unity3d.com,2011:
--- !u!78 &1
TagManager:
  serializedVersion: 2
  tags:
  - Shield
  - mPlayer
  - PowerCore
  - Enemy
  - HeadsetNoCollide
  - SnapZone
  - VRObjectPooler
  - MonitorObjectPooler
  - LargeAstroid
  - SmallAstroid
  - LRifleMag
  - MediumAstroid
  - PlayerProjectile
  - EnemyProjectile
  - VrController
  - EnemyShield
  - pGun
  layers:
  - Default
  - TransparentFX
  - Ignore Raycast
  - 
  - Water
  - UI
  - 
  - 
  - LargeAstroid
  - MediumAstroid
  - SmallAstroid
  - PlayerProjectile
  - Enemy
  - EnemyProjectile
  - vrPlayer
  - mPlayer
  - Shield
  - MonitorUI
  - VRInteractable
  - VRGUI
  - Screen
  - VRPlayerObject
  - ButtonColor
  - Door
  - ShieldRoom
  - LifeSupportRoom
  - EnemyShield
  - 
  - 
  - 
  - 
  - 
  m_SortingLayers:
  - name: Default
    uniqueID: 0
    locked: 0
